{
    "db2objects":[
       {
          "name":"DSN8D12A",
          "qualifier":"",
          "requiredObjects":[
 
          ],
          "subsystem":"a0f066e7-ccc8-41f1-a328-b9a5b275be6d",
          "type":"DB",
          "url":"",
          "createdts":"2016-12-19 14:24:50.933505",
          "objectName":"policy.db2object",
          "__yamlClass":"com.rocketsoft.newton.policy.Db2Object"
       },
       {
          "name":"DSN8S12D",
          "qualifier":"DSN8D12A",
          "requiredObjects":[
             {
                "name":"DSN8D12A",
                "qualifier":"",
                "subsystem":"a0f066e7-ccc8-41f1-a328-b9a5b275be6d",
                "type":"DB",
                "__yamlClass":"com.rocketsoft.newton.policy.Db2Object$RequiredObject"
             }
          ],
          "subsystem":"a0f066e7-ccc8-41f1-a328-b9a5b275be6d",
          "type":"TS",
          "url":"",
          "createdts":"2016-12-19 14:24:50.938714",
          "objectName":"policy.db2object",
          "__yamlClass":"com.rocketsoft.newton.policy.Db2Object"
       },
       {
          "name":"DSN8S12E",
          "qualifier":"DSN8D12A",
          "requiredObjects":[
             {
                "name":"DSN8D12A",
                "qualifier":"",
                "subsystem":"a0f066e7-ccc8-41f1-a328-b9a5b275be6d",
                "type":"DB",
                "__yamlClass":"com.rocketsoft.newton.policy.Db2Object$RequiredObject"
             }
          ],
          "subsystem":"a0f066e7-ccc8-41f1-a328-b9a5b275be6d",
          "type":"TS",
          "url":"",
          "createdts":"2016-12-19 14:24:54.07476",
          "objectName":"policy.db2object",
          "__yamlClass":"com.rocketsoft.newton.policy.Db2Object"
       },
       {
          "name":"DSN8S12R",
          "qualifier":"DSN8D12A",
          "requiredObjects":[
             {
                "name":"DSN8D12A",
                "qualifier":"",
                "subsystem":"a0f066e7-ccc8-41f1-a328-b9a5b275be6d",
                "type":"DB",
                "__yamlClass":"com.rocketsoft.newton.policy.Db2Object$RequiredObject"
             }
          ],
          "subsystem":"a0f066e7-ccc8-41f1-a328-b9a5b275be6d",
          "type":"TS",
          "url":"",
          "createdts":"2016-12-19 14:25:03.672463",
          "objectName":"policy.db2object",
          "__yamlClass":"com.rocketsoft.newton.policy.Db2Object"
       },
       {
          "name":"DSN8S12P",
          "qualifier":"DSN8D12A",
          "requiredObjects":[
             {
                "name":"DSN8D12A",
                "qualifier":"",
                "subsystem":"a0f066e7-ccc8-41f1-a328-b9a5b275be6d",
                "type":"DB",
                "__yamlClass":"com.rocketsoft.newton.policy.Db2Object$RequiredObject"
             }
          ],
          "subsystem":"a0f066e7-ccc8-41f1-a328-b9a5b275be6d",
          "type":"TS",
          "url":"",
          "createdts":"2016-12-19 14:25:05.368147",
          "objectName":"policy.db2object",
          "__yamlClass":"com.rocketsoft.newton.policy.Db2Object"
       },
       {
          "name":"DEPT",
          "qualifier":"DSN81210",
          "requiredObjects":[
             {
                "name":"DSN8D12A",
                "qualifier":"",
                "subsystem":"a0f066e7-ccc8-41f1-a328-b9a5b275be6d",
                "type":"DB",
                "__yamlClass":"com.rocketsoft.newton.policy.Db2Object$RequiredObject"
             },
             {
                "name":"DSN8S12D",
                "qualifier":"DSN8D12A",
                "subsystem":"a0f066e7-ccc8-41f1-a328-b9a5b275be6d",
                "type":"TS",
                "__yamlClass":"com.rocketsoft.newton.policy.Db2Object$RequiredObject"
             },
             {
                "name":"EMP",
                "qualifier":"DSN81210",
                "subsystem":"a0f066e7-ccc8-41f1-a328-b9a5b275be6d",
                "type":"TB",
                "__yamlClass":"com.rocketsoft.newton.policy.Db2Object$RequiredObject"
             },
             {
                "name":"XDEPT1",
                "qualifier":"DSN81210",
                "subsystem":"a0f066e7-ccc8-41f1-a328-b9a5b275be6d",
                "type":"IX",
                "__yamlClass":"com.rocketsoft.newton.policy.Db2Object$RequiredObject"
             },
             {
                "name":"XDEPT2",
                "qualifier":"DSN81210",
                "subsystem":"a0f066e7-ccc8-41f1-a328-b9a5b275be6d",
                "type":"IX",
                "__yamlClass":"com.rocketsoft.newton.policy.Db2Object$RequiredObject"
             },
             {
                "name":"XDEPT3",
                "qualifier":"DSN81210",
                "subsystem":"a0f066e7-ccc8-41f1-a328-b9a5b275be6d",
                "type":"IX",
                "__yamlClass":"com.rocketsoft.newton.policy.Db2Object$RequiredObject"
             },
             {
                "name":"VDEPT",
                "qualifier":"DSN81210",
                "subsystem":"a0f066e7-ccc8-41f1-a328-b9a5b275be6d",
                "type":"VW",
                "__yamlClass":"com.rocketsoft.newton.policy.Db2Object$RequiredObject"
             },
             {
                "name":"VHDEPT",
                "qualifier":"DSN81210",
                "subsystem":"a0f066e7-ccc8-41f1-a328-b9a5b275be6d",
                "type":"VW",
                "__yamlClass":"com.rocketsoft.newton.policy.Db2Object$RequiredObject"
             },
             {
                "name":"VDEPMG1",
                "qualifier":"DSN81210",
                "subsystem":"a0f066e7-ccc8-41f1-a328-b9a5b275be6d",
                "type":"VW",
                "__yamlClass":"com.rocketsoft.newton.policy.Db2Object$RequiredObject"
             },
             {
                "name":"VEMPDPT1",
                "qualifier":"DSN81210",
                "subsystem":"a0f066e7-ccc8-41f1-a328-b9a5b275be6d",
                "type":"VW",
                "__yamlClass":"com.rocketsoft.newton.policy.Db2Object$RequiredObject"
             },
             {
                "name":"VPHONE",
                "qualifier":"DSN81210",
                "subsystem":"a0f066e7-ccc8-41f1-a328-b9a5b275be6d",
                "type":"VW",
                "__yamlClass":"com.rocketsoft.newton.policy.Db2Object$RequiredObject"
             },
             {
                "name":"DEPT",
                "qualifier":"IBMUSER",
                "subsystem":"a0f066e7-ccc8-41f1-a328-b9a5b275be6d",
                "type":"AL",
                "__yamlClass":"com.rocketsoft.newton.policy.Db2Object$RequiredObject"
             }
          ],
          "subsystem":"a0f066e7-ccc8-41f1-a328-b9a5b275be6d",
          "type":"TB",
          "url":"",
          "createdts":"2016-12-19 14:25:10.634402",
          "objectName":"policy.db2object",
          "__yamlClass":"com.rocketsoft.newton.policy.Db2Object"
       },
       {
          "name":"XDEPT1",
          "qualifier":"DSN81210",
          "requiredObjects":[
             {
                "name":"DEPT",
                "qualifier":"DSN81210",
                "subsystem":"a0f066e7-ccc8-41f1-a328-b9a5b275be6d",
                "type":"TB",
                "__yamlClass":"com.rocketsoft.newton.policy.Db2Object$RequiredObject"
             },
             {
                "name":"DSN8D12A",
                "qualifier":"",
                "subsystem":"a0f066e7-ccc8-41f1-a328-b9a5b275be6d",
                "type":"DB",
                "__yamlClass":"com.rocketsoft.newton.policy.Db2Object$RequiredObject"
             },
             {
                "name":"DSN8S12D",
                "qualifier":"DSN8D12A",
                "subsystem":"a0f066e7-ccc8-41f1-a328-b9a5b275be6d",
                "type":"TS",
                "__yamlClass":"com.rocketsoft.newton.policy.Db2Object$RequiredObject"
             }
          ],
          "subsystem":"a0f066e7-ccc8-41f1-a328-b9a5b275be6d",
          "type":"IX",
          "url":"",
          "createdts":"2016-12-19 14:25:11.988291",
          "objectName":"policy.db2object",
          "__yamlClass":"com.rocketsoft.newton.policy.Db2Object"
       },
       {
          "name":"XDEPT2",
          "qualifier":"DSN81210",
          "requiredObjects":[
             {
                "name":"DEPT",
                "qualifier":"DSN81210",
                "subsystem":"a0f066e7-ccc8-41f1-a328-b9a5b275be6d",
                "type":"TB",
                "__yamlClass":"com.rocketsoft.newton.policy.Db2Object$RequiredObject"
             },
             {
                "name":"DSN8D12A",
                "qualifier":"",
                "subsystem":"a0f066e7-ccc8-41f1-a328-b9a5b275be6d",
                "type":"DB",
                "__yamlClass":"com.rocketsoft.newton.policy.Db2Object$RequiredObject"
             },
             {
                "name":"DSN8S12D",
                "qualifier":"DSN8D12A",
                "subsystem":"a0f066e7-ccc8-41f1-a328-b9a5b275be6d",
                "type":"TS",
                "__yamlClass":"com.rocketsoft.newton.policy.Db2Object$RequiredObject"
             }
          ],
          "subsystem":"a0f066e7-ccc8-41f1-a328-b9a5b275be6d",
          "type":"IX",
          "url":"",
          "createdts":"2016-12-19 14:25:14.256163",
          "objectName":"policy.db2object",
          "__yamlClass":"com.rocketsoft.newton.policy.Db2Object"
       },
       {
          "name":"XDEPT3",
          "qualifier":"DSN81210",
          "requiredObjects":[
             {
                "name":"DEPT",
                "qualifier":"DSN81210",
                "subsystem":"a0f066e7-ccc8-41f1-a328-b9a5b275be6d",
                "type":"TB",
                "__yamlClass":"com.rocketsoft.newton.policy.Db2Object$RequiredObject"
             },
             {
                "name":"DSN8D12A",
                "qualifier":"",
                "subsystem":"a0f066e7-ccc8-41f1-a328-b9a5b275be6d",
                "type":"DB",
                "__yamlClass":"com.rocketsoft.newton.policy.Db2Object$RequiredObject"
             },
             {
                "name":"DSN8S12D",
                "qualifier":"DSN8D12A",
                "subsystem":"a0f066e7-ccc8-41f1-a328-b9a5b275be6d",
                "type":"TS",
                "__yamlClass":"com.rocketsoft.newton.policy.Db2Object$RequiredObject"
             }
          ],
          "subsystem":"a0f066e7-ccc8-41f1-a328-b9a5b275be6d",
          "type":"IX",
          "url":"",
          "createdts":"2016-12-19 14:25:15.955582",
          "objectName":"policy.db2object",
          "__yamlClass":"com.rocketsoft.newton.policy.Db2Object"
       },
       {
          "name":"VDEPT",
          "qualifier":"DSN81210",
          "requiredObjects":[
             {
                "name":"DEPT",
                "qualifier":"DSN81210",
                "subsystem":"a0f066e7-ccc8-41f1-a328-b9a5b275be6d",
                "type":"TB",
                "__yamlClass":"com.rocketsoft.newton.policy.Db2Object$RequiredObject"
             },
             {
                "name":"VDEPT",
                "qualifier":"IBMUSER",
                "subsystem":"a0f066e7-ccc8-41f1-a328-b9a5b275be6d",
                "type":"AL",
                "__yamlClass":"com.rocketsoft.newton.policy.Db2Object$RequiredObject"
             }
          ],
          "subsystem":"a0f066e7-ccc8-41f1-a328-b9a5b275be6d",
          "type":"VW",
          "url":"",
          "createdts":"2016-12-19 14:25:18.37724",
          "objectName":"policy.db2object",
          "__yamlClass":"com.rocketsoft.newton.policy.Db2Object"
       },
       {
          "name":"VHDEPT",
          "qualifier":"DSN81210",
          "requiredObjects":[
             {
                "name":"DEPT",
                "qualifier":"DSN81210",
                "subsystem":"a0f066e7-ccc8-41f1-a328-b9a5b275be6d",
                "type":"TB",
                "__yamlClass":"com.rocketsoft.newton.policy.Db2Object$RequiredObject"
             },
             {
                "name":"VHDEPT",
                "qualifier":"IBMUSER",
                "subsystem":"a0f066e7-ccc8-41f1-a328-b9a5b275be6d",
                "type":"AL",
                "__yamlClass":"com.rocketsoft.newton.policy.Db2Object$RequiredObject"
             }
          ],
          "subsystem":"a0f066e7-ccc8-41f1-a328-b9a5b275be6d",
          "type":"VW",
          "url":"",
          "createdts":"2016-12-19 14:25:19.10006",
          "objectName":"policy.db2object",
          "__yamlClass":"com.rocketsoft.newton.policy.Db2Object"
       },
       {
          "name":"EMP",
          "qualifier":"DSN81210",
          "requiredObjects":[
             {
                "name":"DSN8D12A",
                "qualifier":"",
                "subsystem":"a0f066e7-ccc8-41f1-a328-b9a5b275be6d",
                "type":"DB",
                "__yamlClass":"com.rocketsoft.newton.policy.Db2Object$RequiredObject"
             },
             {
                "name":"DSN8S12E",
                "qualifier":"DSN8D12A",
                "subsystem":"a0f066e7-ccc8-41f1-a328-b9a5b275be6d",
                "type":"TS",
                "__yamlClass":"com.rocketsoft.newton.policy.Db2Object$RequiredObject"
             },
             {
                "name":"DEPT",
                "qualifier":"DSN81210",
                "subsystem":"a0f066e7-ccc8-41f1-a328-b9a5b275be6d",
                "type":"TB",
                "__yamlClass":"com.rocketsoft.newton.policy.Db2Object$RequiredObject"
             },
             {
                "name":"XEMP1",
                "qualifier":"DSN81210",
                "subsystem":"a0f066e7-ccc8-41f1-a328-b9a5b275be6d",
                "type":"IX",
                "__yamlClass":"com.rocketsoft.newton.policy.Db2Object$RequiredObject"
             },
             {
                "name":"XEMP2",
                "qualifier":"DSN81210",
                "subsystem":"a0f066e7-ccc8-41f1-a328-b9a5b275be6d",
                "type":"IX",
                "__yamlClass":"com.rocketsoft.newton.policy.Db2Object$RequiredObject"
             },
             {
                "name":"VEMP",
                "qualifier":"DSN81210",
                "subsystem":"a0f066e7-ccc8-41f1-a328-b9a5b275be6d",
                "type":"VW",
                "__yamlClass":"com.rocketsoft.newton.policy.Db2Object$RequiredObject"
             },
             {
                "name":"VDEPMG1",
                "qualifier":"DSN81210",
                "subsystem":"a0f066e7-ccc8-41f1-a328-b9a5b275be6d",
                "type":"VW",
                "__yamlClass":"com.rocketsoft.newton.policy.Db2Object$RequiredObject"
             },
             {
                "name":"VEMPDPT1",
                "qualifier":"DSN81210",
                "subsystem":"a0f066e7-ccc8-41f1-a328-b9a5b275be6d",
                "type":"VW",
                "__yamlClass":"com.rocketsoft.newton.policy.Db2Object$RequiredObject"
             },
             {
                "name":"VASTRDE2",
                "qualifier":"DSN81210",
                "subsystem":"a0f066e7-ccc8-41f1-a328-b9a5b275be6d",
                "type":"VW",
                "__yamlClass":"com.rocketsoft.newton.policy.Db2Object$RequiredObject"
             },
             {
                "name":"VPROJRE1",
                "qualifier":"DSN81210",
                "subsystem":"a0f066e7-ccc8-41f1-a328-b9a5b275be6d",
                "type":"VW",
                "__yamlClass":"com.rocketsoft.newton.policy.Db2Object$RequiredObject"
             },
             {
                "name":"VSTAFAC2",
                "qualifier":"DSN81210",
                "subsystem":"a0f066e7-ccc8-41f1-a328-b9a5b275be6d",
                "type":"VW",
                "__yamlClass":"com.rocketsoft.newton.policy.Db2Object$RequiredObject"
             },
             {
                "name":"VPHONE",
                "qualifier":"DSN81210",
                "subsystem":"a0f066e7-ccc8-41f1-a328-b9a5b275be6d",
                "type":"VW",
                "__yamlClass":"com.rocketsoft.newton.policy.Db2Object$RequiredObject"
             },
             {
                "name":"VEMPLP",
                "qualifier":"DSN81210",
                "subsystem":"a0f066e7-ccc8-41f1-a328-b9a5b275be6d",
                "type":"VW",
                "__yamlClass":"com.rocketsoft.newton.policy.Db2Object$RequiredObject"
             },
             {
                "name":"EMP",
                "qualifier":"IBMUSER",
                "subsystem":"a0f066e7-ccc8-41f1-a328-b9a5b275be6d",
                "type":"AL",
                "__yamlClass":"com.rocketsoft.newton.policy.Db2Object$RequiredObject"
             }
          ],
          "subsystem":"a0f066e7-ccc8-41f1-a328-b9a5b275be6d",
          "type":"TB",
          "url":"",
          "createdts":"2016-12-19 14:25:19.107317",
          "objectName":"policy.db2object",
          "__yamlClass":"com.rocketsoft.newton.policy.Db2Object"
       },
       {
          "name":"XEMP1",
          "qualifier":"DSN81210",
          "requiredObjects":[
             {
                "name":"EMP",
                "qualifier":"DSN81210",
                "subsystem":"a0f066e7-ccc8-41f1-a328-b9a5b275be6d",
                "type":"TB",
                "__yamlClass":"com.rocketsoft.newton.policy.Db2Object$RequiredObject"
             },
             {
                "name":"DSN8D12A",
                "qualifier":"",
                "subsystem":"a0f066e7-ccc8-41f1-a328-b9a5b275be6d",
                "type":"DB",
                "__yamlClass":"com.rocketsoft.newton.policy.Db2Object$RequiredObject"
             },
             {
                "name":"DSN8S12E",
                "qualifier":"DSN8D12A",
                "subsystem":"a0f066e7-ccc8-41f1-a328-b9a5b275be6d",
                "type":"TS",
                "__yamlClass":"com.rocketsoft.newton.policy.Db2Object$RequiredObject"
             }
          ],
          "subsystem":"a0f066e7-ccc8-41f1-a328-b9a5b275be6d",
          "type":"IX",
          "url":"",
          "createdts":"2016-12-19 14:25:21.029195",
          "objectName":"policy.db2object",
          "__yamlClass":"com.rocketsoft.newton.policy.Db2Object"
       },
       {
          "name":"XEMP2",
          "qualifier":"DSN81210",
          "requiredObjects":[
             {
                "name":"EMP",
                "qualifier":"DSN81210",
                "subsystem":"a0f066e7-ccc8-41f1-a328-b9a5b275be6d",
                "type":"TB",
                "__yamlClass":"com.rocketsoft.newton.policy.Db2Object$RequiredObject"
             },
             {
                "name":"DSN8D12A",
                "qualifier":"",
                "subsystem":"a0f066e7-ccc8-41f1-a328-b9a5b275be6d",
                "type":"DB",
                "__yamlClass":"com.rocketsoft.newton.policy.Db2Object$RequiredObject"
             },
             {
                "name":"DSN8S12E",
                "qualifier":"DSN8D12A",
                "subsystem":"a0f066e7-ccc8-41f1-a328-b9a5b275be6d",
                "type":"TS",
                "__yamlClass":"com.rocketsoft.newton.policy.Db2Object$RequiredObject"
             }
          ],
          "subsystem":"a0f066e7-ccc8-41f1-a328-b9a5b275be6d",
          "type":"IX",
          "url":"",
          "createdts":"2016-12-19 14:25:22.731609",
          "objectName":"policy.db2object",
          "__yamlClass":"com.rocketsoft.newton.policy.Db2Object"
       },
       {
          "name":"VEMP",
          "qualifier":"DSN81210",
          "requiredObjects":[
             {
                "name":"EMP",
                "qualifier":"DSN81210",
                "subsystem":"a0f066e7-ccc8-41f1-a328-b9a5b275be6d",
                "type":"TB",
                "__yamlClass":"com.rocketsoft.newton.policy.Db2Object$RequiredObject"
             },
             {
                "name":"VEMP",
                "qualifier":"IBMUSER",
                "subsystem":"a0f066e7-ccc8-41f1-a328-b9a5b275be6d",
                "type":"AL",
                "__yamlClass":"com.rocketsoft.newton.policy.Db2Object$RequiredObject"
             }
          ],
          "subsystem":"a0f066e7-ccc8-41f1-a328-b9a5b275be6d",
          "type":"VW",
          "url":"",
          "createdts":"2016-12-19 14:25:24.425843",
          "objectName":"policy.db2object",
          "__yamlClass":"com.rocketsoft.newton.policy.Db2Object"
       },
       {
          "name":"PROJ",
          "qualifier":"DSN81210",
          "requiredObjects":[
             {
                "name":"DSN8D12A",
                "qualifier":"",
                "subsystem":"a0f066e7-ccc8-41f1-a328-b9a5b275be6d",
                "type":"DB",
                "__yamlClass":"com.rocketsoft.newton.policy.Db2Object$RequiredObject"
             },
             {
                "name":"DSN8S12P",
                "qualifier":"DSN8D12A",
                "subsystem":"a0f066e7-ccc8-41f1-a328-b9a5b275be6d",
                "type":"TS",
                "__yamlClass":"com.rocketsoft.newton.policy.Db2Object$RequiredObject"
             },
             {
                "name":"DEPT",
                "qualifier":"DSN81210",
                "subsystem":"a0f066e7-ccc8-41f1-a328-b9a5b275be6d",
                "type":"TB",
                "__yamlClass":"com.rocketsoft.newton.policy.Db2Object$RequiredObject"
             },
             {
                "name":"EMP",
                "qualifier":"DSN81210",
                "subsystem":"a0f066e7-ccc8-41f1-a328-b9a5b275be6d",
                "type":"TB",
                "__yamlClass":"com.rocketsoft.newton.policy.Db2Object$RequiredObject"
             },
             {
                "name":"XPROJ1",
                "qualifier":"DSN81210",
                "subsystem":"a0f066e7-ccc8-41f1-a328-b9a5b275be6d",
                "type":"IX",
                "__yamlClass":"com.rocketsoft.newton.policy.Db2Object$RequiredObject"
             },
             {
                "name":"XPROJ2",
                "qualifier":"DSN81210",
                "subsystem":"a0f066e7-ccc8-41f1-a328-b9a5b275be6d",
                "type":"IX",
                "__yamlClass":"com.rocketsoft.newton.policy.Db2Object$RequiredObject"
             },
             {
                "name":"VPROJ",
                "qualifier":"DSN81210",
                "subsystem":"a0f066e7-ccc8-41f1-a328-b9a5b275be6d",
                "type":"VW",
                "__yamlClass":"com.rocketsoft.newton.policy.Db2Object$RequiredObject"
             },
             {
                "name":"VPROJRE1",
                "qualifier":"DSN81210",
                "subsystem":"a0f066e7-ccc8-41f1-a328-b9a5b275be6d",
                "type":"VW",
                "__yamlClass":"com.rocketsoft.newton.policy.Db2Object$RequiredObject"
             },
             {
                "name":"PROJ",
                "qualifier":"IBMUSER",
                "subsystem":"a0f066e7-ccc8-41f1-a328-b9a5b275be6d",
                "type":"AL",
                "__yamlClass":"com.rocketsoft.newton.policy.Db2Object$RequiredObject"
             }
          ],
          "subsystem":"a0f066e7-ccc8-41f1-a328-b9a5b275be6d",
          "type":"TB",
          "url":"",
          "createdts":"2016-12-19 14:25:24.429709",
          "objectName":"policy.db2object",
          "__yamlClass":"com.rocketsoft.newton.policy.Db2Object"
       },
       {
          "name":"XPROJ1",
          "qualifier":"DSN81210",
          "requiredObjects":[
             {
                "name":"PROJ",
                "qualifier":"DSN81210",
                "subsystem":"a0f066e7-ccc8-41f1-a328-b9a5b275be6d",
                "type":"TB",
                "__yamlClass":"com.rocketsoft.newton.policy.Db2Object$RequiredObject"
             },
             {
                "name":"DSN8D12A",
                "qualifier":"",
                "subsystem":"a0f066e7-ccc8-41f1-a328-b9a5b275be6d",
                "type":"DB",
                "__yamlClass":"com.rocketsoft.newton.policy.Db2Object$RequiredObject"
             },
             {
                "name":"DSN8S12P",
                "qualifier":"DSN8D12A",
                "subsystem":"a0f066e7-ccc8-41f1-a328-b9a5b275be6d",
                "type":"TS",
                "__yamlClass":"com.rocketsoft.newton.policy.Db2Object$RequiredObject"
             }
          ],
          "subsystem":"a0f066e7-ccc8-41f1-a328-b9a5b275be6d",
          "type":"IX",
          "url":"",
          "createdts":"2016-12-19 14:25:25.060704",
          "objectName":"policy.db2object",
          "__yamlClass":"com.rocketsoft.newton.policy.Db2Object"
       },
       {
          "name":"XPROJ2",
          "qualifier":"DSN81210",
          "requiredObjects":[
             {
                "name":"PROJ",
                "qualifier":"DSN81210",
                "subsystem":"a0f066e7-ccc8-41f1-a328-b9a5b275be6d",
                "type":"TB",
                "__yamlClass":"com.rocketsoft.newton.policy.Db2Object$RequiredObject"
             },
             {
                "name":"DSN8D12A",
                "qualifier":"",
                "subsystem":"a0f066e7-ccc8-41f1-a328-b9a5b275be6d",
                "type":"DB",
                "__yamlClass":"com.rocketsoft.newton.policy.Db2Object$RequiredObject"
             },
             {
                "name":"DSN8S12P",
                "qualifier":"DSN8D12A",
                "subsystem":"a0f066e7-ccc8-41f1-a328-b9a5b275be6d",
                "type":"TS",
                "__yamlClass":"com.rocketsoft.newton.policy.Db2Object$RequiredObject"
             }
          ],
          "subsystem":"a0f066e7-ccc8-41f1-a328-b9a5b275be6d",
          "type":"IX",
          "url":"",
          "createdts":"2016-12-19 14:25:26.755886",
          "objectName":"policy.db2object",
          "__yamlClass":"com.rocketsoft.newton.policy.Db2Object"
       },
       {
          "name":"VPROJ",
          "qualifier":"DSN81210",
          "requiredObjects":[
             {
                "name":"PROJ",
                "qualifier":"DSN81210",
                "subsystem":"a0f066e7-ccc8-41f1-a328-b9a5b275be6d",
                "type":"TB",
                "__yamlClass":"com.rocketsoft.newton.policy.Db2Object$RequiredObject"
             },
             {
                "name":"VPROJ",
                "qualifier":"IBMUSER",
                "subsystem":"a0f066e7-ccc8-41f1-a328-b9a5b275be6d",
                "type":"AL",
                "__yamlClass":"com.rocketsoft.newton.policy.Db2Object$RequiredObject"
             }
          ],
          "subsystem":"a0f066e7-ccc8-41f1-a328-b9a5b275be6d",
          "type":"VW",
          "url":"",
          "createdts":"2016-12-19 14:25:28.455524",
          "objectName":"policy.db2object",
          "__yamlClass":"com.rocketsoft.newton.policy.Db2Object"
       },
       {
          "name":"ACT",
          "qualifier":"DSN81210",
          "requiredObjects":[
             {
                "name":"DSN8D12A",
                "qualifier":"",
                "subsystem":"a0f066e7-ccc8-41f1-a328-b9a5b275be6d",
                "type":"DB",
                "__yamlClass":"com.rocketsoft.newton.policy.Db2Object$RequiredObject"
             },
             {
                "name":"DSN8S12P",
                "qualifier":"DSN8D12A",
                "subsystem":"a0f066e7-ccc8-41f1-a328-b9a5b275be6d",
                "type":"TS",
                "__yamlClass":"com.rocketsoft.newton.policy.Db2Object$RequiredObject"
             },
             {
                "name":"XACT1",
                "qualifier":"DSN81210",
                "subsystem":"a0f066e7-ccc8-41f1-a328-b9a5b275be6d",
                "type":"IX",
                "__yamlClass":"com.rocketsoft.newton.policy.Db2Object$RequiredObject"
             },
             {
                "name":"XACT2",
                "qualifier":"DSN81210",
                "subsystem":"a0f066e7-ccc8-41f1-a328-b9a5b275be6d",
                "type":"IX",
                "__yamlClass":"com.rocketsoft.newton.policy.Db2Object$RequiredObject"
             },
             {
                "name":"VACT",
                "qualifier":"DSN81210",
                "subsystem":"a0f066e7-ccc8-41f1-a328-b9a5b275be6d",
                "type":"VW",
                "__yamlClass":"com.rocketsoft.newton.policy.Db2Object$RequiredObject"
             },
             {
                "name":"VSTAFAC1",
                "qualifier":"DSN81210",
                "subsystem":"a0f066e7-ccc8-41f1-a328-b9a5b275be6d",
                "type":"VW",
                "__yamlClass":"com.rocketsoft.newton.policy.Db2Object$RequiredObject"
             },
             {
                "name":"VSTAFAC2",
                "qualifier":"DSN81210",
                "subsystem":"a0f066e7-ccc8-41f1-a328-b9a5b275be6d",
                "type":"VW",
                "__yamlClass":"com.rocketsoft.newton.policy.Db2Object$RequiredObject"
             },
             {
                "name":"ACT",
                "qualifier":"IBMUSER",
                "subsystem":"a0f066e7-ccc8-41f1-a328-b9a5b275be6d",
                "type":"AL",
                "__yamlClass":"com.rocketsoft.newton.policy.Db2Object$RequiredObject"
             }
          ],
          "subsystem":"a0f066e7-ccc8-41f1-a328-b9a5b275be6d",
          "type":"TB",
          "url":"",
          "createdts":"2016-12-19 14:25:28.463066",
          "objectName":"policy.db2object",
          "__yamlClass":"com.rocketsoft.newton.policy.Db2Object"
       },
       {
          "name":"XACT1",
          "qualifier":"DSN81210",
          "requiredObjects":[
             {
                "name":"ACT",
                "qualifier":"DSN81210",
                "subsystem":"a0f066e7-ccc8-41f1-a328-b9a5b275be6d",
                "type":"TB",
                "__yamlClass":"com.rocketsoft.newton.policy.Db2Object$RequiredObject"
             },
             {
                "name":"DSN8D12A",
                "qualifier":"",
                "subsystem":"a0f066e7-ccc8-41f1-a328-b9a5b275be6d",
                "type":"DB",
                "__yamlClass":"com.rocketsoft.newton.policy.Db2Object$RequiredObject"
             },
             {
                "name":"DSN8S12P",
                "qualifier":"DSN8D12A",
                "subsystem":"a0f066e7-ccc8-41f1-a328-b9a5b275be6d",
                "type":"TS",
                "__yamlClass":"com.rocketsoft.newton.policy.Db2Object$RequiredObject"
             }
          ],
          "subsystem":"a0f066e7-ccc8-41f1-a328-b9a5b275be6d",
          "type":"IX",
          "url":"",
          "createdts":"2016-12-19 14:25:28.466432",
          "objectName":"policy.db2object",
          "__yamlClass":"com.rocketsoft.newton.policy.Db2Object"
       },
       {
          "name":"XACT2",
          "qualifier":"DSN81210",
          "requiredObjects":[
             {
                "name":"ACT",
                "qualifier":"DSN81210",
                "subsystem":"a0f066e7-ccc8-41f1-a328-b9a5b275be6d",
                "type":"TB",
                "__yamlClass":"com.rocketsoft.newton.policy.Db2Object$RequiredObject"
             },
             {
                "name":"DSN8D12A",
                "qualifier":"",
                "subsystem":"a0f066e7-ccc8-41f1-a328-b9a5b275be6d",
                "type":"DB",
                "__yamlClass":"com.rocketsoft.newton.policy.Db2Object$RequiredObject"
             },
             {
                "name":"DSN8S12P",
                "qualifier":"DSN8D12A",
                "subsystem":"a0f066e7-ccc8-41f1-a328-b9a5b275be6d",
                "type":"TS",
                "__yamlClass":"com.rocketsoft.newton.policy.Db2Object$RequiredObject"
             }
          ],
          "subsystem":"a0f066e7-ccc8-41f1-a328-b9a5b275be6d",
          "type":"IX",
          "url":"",
          "createdts":"2016-12-19 14:25:30.155982",
          "objectName":"policy.db2object",
          "__yamlClass":"com.rocketsoft.newton.policy.Db2Object"
       },
       {
          "name":"VACT",
          "qualifier":"DSN81210",
          "requiredObjects":[
             {
                "name":"ACT",
                "qualifier":"DSN81210",
                "subsystem":"a0f066e7-ccc8-41f1-a328-b9a5b275be6d",
                "type":"TB",
                "__yamlClass":"com.rocketsoft.newton.policy.Db2Object$RequiredObject"
             },
             {
                "name":"VACT",
                "qualifier":"IBMUSER",
                "subsystem":"a0f066e7-ccc8-41f1-a328-b9a5b275be6d",
                "type":"AL",
                "__yamlClass":"com.rocketsoft.newton.policy.Db2Object$RequiredObject"
             }
          ],
          "subsystem":"a0f066e7-ccc8-41f1-a328-b9a5b275be6d",
          "type":"VW",
          "url":"",
          "createdts":"2016-12-19 14:25:31.855083",
          "objectName":"policy.db2object",
          "__yamlClass":"com.rocketsoft.newton.policy.Db2Object"
       },
       {
          "name":"PROJACT",
          "qualifier":"DSN81210",
          "requiredObjects":[
             {
                "name":"DSN8D12A",
                "qualifier":"",
                "subsystem":"a0f066e7-ccc8-41f1-a328-b9a5b275be6d",
                "type":"DB",
                "__yamlClass":"com.rocketsoft.newton.policy.Db2Object$RequiredObject"
             },
             {
                "name":"DSN8S12P",
                "qualifier":"DSN8D12A",
                "subsystem":"a0f066e7-ccc8-41f1-a328-b9a5b275be6d",
                "type":"TS",
                "__yamlClass":"com.rocketsoft.newton.policy.Db2Object$RequiredObject"
             },
             {
                "name":"PROJ",
                "qualifier":"DSN81210",
                "subsystem":"a0f066e7-ccc8-41f1-a328-b9a5b275be6d",
                "type":"TB",
                "__yamlClass":"com.rocketsoft.newton.policy.Db2Object$RequiredObject"
             },
             {
                "name":"ACT",
                "qualifier":"DSN81210",
                "subsystem":"a0f066e7-ccc8-41f1-a328-b9a5b275be6d",
                "type":"TB",
                "__yamlClass":"com.rocketsoft.newton.policy.Db2Object$RequiredObject"
             },
             {
                "name":"XPROJAC1",
                "qualifier":"DSN81210",
                "subsystem":"a0f066e7-ccc8-41f1-a328-b9a5b275be6d",
                "type":"IX",
                "__yamlClass":"com.rocketsoft.newton.policy.Db2Object$RequiredObject"
             },
             {
                "name":"VPROJACT",
                "qualifier":"DSN81210",
                "subsystem":"a0f066e7-ccc8-41f1-a328-b9a5b275be6d",
                "type":"VW",
                "__yamlClass":"com.rocketsoft.newton.policy.Db2Object$RequiredObject"
             },
             {
                "name":"VSTAFAC1",
                "qualifier":"DSN81210",
                "subsystem":"a0f066e7-ccc8-41f1-a328-b9a5b275be6d",
                "type":"VW",
                "__yamlClass":"com.rocketsoft.newton.policy.Db2Object$RequiredObject"
             },
             {
                "name":"PROJACT",
                "qualifier":"IBMUSER",
                "subsystem":"a0f066e7-ccc8-41f1-a328-b9a5b275be6d",
                "type":"AL",
                "__yamlClass":"com.rocketsoft.newton.policy.Db2Object$RequiredObject"
             }
          ],
          "subsystem":"a0f066e7-ccc8-41f1-a328-b9a5b275be6d",
          "type":"TB",
          "url":"",
          "createdts":"2016-12-19 14:25:31.858721",
          "objectName":"policy.db2object",
          "__yamlClass":"com.rocketsoft.newton.policy.Db2Object"
       },
       {
          "name":"XPROJAC1",
          "qualifier":"DSN81210",
          "requiredObjects":[
             {
                "name":"PROJACT",
                "qualifier":"DSN81210",
                "subsystem":"a0f066e7-ccc8-41f1-a328-b9a5b275be6d",
                "type":"TB",
                "__yamlClass":"com.rocketsoft.newton.policy.Db2Object$RequiredObject"
             },
             {
                "name":"DSN8D12A",
                "qualifier":"",
                "subsystem":"a0f066e7-ccc8-41f1-a328-b9a5b275be6d",
                "type":"DB",
                "__yamlClass":"com.rocketsoft.newton.policy.Db2Object$RequiredObject"
             },
             {
                "name":"DSN8S12P",
                "qualifier":"DSN8D12A",
                "subsystem":"a0f066e7-ccc8-41f1-a328-b9a5b275be6d",
                "type":"TS",
                "__yamlClass":"com.rocketsoft.newton.policy.Db2Object$RequiredObject"
             }
          ],
          "subsystem":"a0f066e7-ccc8-41f1-a328-b9a5b275be6d",
          "type":"IX",
          "url":"",
          "createdts":"2016-12-19 14:25:31.861018",
          "objectName":"policy.db2object",
          "__yamlClass":"com.rocketsoft.newton.policy.Db2Object"
       },
       {
          "name":"VPROJACT",
          "qualifier":"DSN81210",
          "requiredObjects":[
             {
                "name":"PROJACT",
                "qualifier":"DSN81210",
                "subsystem":"a0f066e7-ccc8-41f1-a328-b9a5b275be6d",
                "type":"TB",
                "__yamlClass":"com.rocketsoft.newton.policy.Db2Object$RequiredObject"
             },
             {
                "name":"VPROJACT",
                "qualifier":"IBMUSER",
                "subsystem":"a0f066e7-ccc8-41f1-a328-b9a5b275be6d",
                "type":"AL",
                "__yamlClass":"com.rocketsoft.newton.policy.Db2Object$RequiredObject"
             }
          ],
          "subsystem":"a0f066e7-ccc8-41f1-a328-b9a5b275be6d",
          "type":"VW",
          "url":"",
          "createdts":"2016-12-19 14:25:33.554842",
          "objectName":"policy.db2object",
          "__yamlClass":"com.rocketsoft.newton.policy.Db2Object"
       },
       {
          "name":"EMPPROJACT",
          "qualifier":"DSN81210",
          "requiredObjects":[
             {
                "name":"DSN8D12A",
                "qualifier":"",
                "subsystem":"a0f066e7-ccc8-41f1-a328-b9a5b275be6d",
                "type":"DB",
                "__yamlClass":"com.rocketsoft.newton.policy.Db2Object$RequiredObject"
             },
             {
                "name":"DSN8S12P",
                "qualifier":"DSN8D12A",
                "subsystem":"a0f066e7-ccc8-41f1-a328-b9a5b275be6d",
                "type":"TS",
                "__yamlClass":"com.rocketsoft.newton.policy.Db2Object$RequiredObject"
             },
             {
                "name":"PROJACT",
                "qualifier":"DSN81210",
                "subsystem":"a0f066e7-ccc8-41f1-a328-b9a5b275be6d",
                "type":"TB",
                "__yamlClass":"com.rocketsoft.newton.policy.Db2Object$RequiredObject"
             },
             {
                "name":"EMP",
                "qualifier":"DSN81210",
                "subsystem":"a0f066e7-ccc8-41f1-a328-b9a5b275be6d",
                "type":"TB",
                "__yamlClass":"com.rocketsoft.newton.policy.Db2Object$RequiredObject"
             },
             {
                "name":"XEMPPROJACT1",
                "qualifier":"DSN81210",
                "subsystem":"a0f066e7-ccc8-41f1-a328-b9a5b275be6d",
                "type":"IX",
                "__yamlClass":"com.rocketsoft.newton.policy.Db2Object$RequiredObject"
             },
             {
                "name":"XEMPPROJACT2",
                "qualifier":"DSN81210",
                "subsystem":"a0f066e7-ccc8-41f1-a328-b9a5b275be6d",
                "type":"IX",
                "__yamlClass":"com.rocketsoft.newton.policy.Db2Object$RequiredObject"
             },
             {
                "name":"VEMPPROJACT",
                "qualifier":"DSN81210",
                "subsystem":"a0f066e7-ccc8-41f1-a328-b9a5b275be6d",
                "type":"VW",
                "__yamlClass":"com.rocketsoft.newton.policy.Db2Object$RequiredObject"
             },
             {
                "name":"VFORPLA",
                "qualifier":"DSN81210",
                "subsystem":"a0f066e7-ccc8-41f1-a328-b9a5b275be6d",
                "type":"VW",
                "__yamlClass":"com.rocketsoft.newton.policy.Db2Object$RequiredObject"
             },
             {
                "name":"VSTAFAC2",
                "qualifier":"DSN81210",
                "subsystem":"a0f066e7-ccc8-41f1-a328-b9a5b275be6d",
                "type":"VW",
                "__yamlClass":"com.rocketsoft.newton.policy.Db2Object$RequiredObject"
             },
             {
                "name":"EMPPROJACT",
                "qualifier":"IBMUSER",
                "subsystem":"a0f066e7-ccc8-41f1-a328-b9a5b275be6d",
                "type":"AL",
                "__yamlClass":"com.rocketsoft.newton.policy.Db2Object$RequiredObject"
             }
          ],
          "subsystem":"a0f066e7-ccc8-41f1-a328-b9a5b275be6d",
          "type":"TB",
          "url":"",
          "createdts":"2016-12-19 14:25:33.562124",
          "objectName":"policy.db2object",
          "__yamlClass":"com.rocketsoft.newton.policy.Db2Object"
       },
       {
          "name":"XEMPPROJACT1",
          "qualifier":"DSN81210",
          "requiredObjects":[
             {
                "name":"EMPPROJACT",
                "qualifier":"DSN81210",
                "subsystem":"a0f066e7-ccc8-41f1-a328-b9a5b275be6d",
                "type":"TB",
                "__yamlClass":"com.rocketsoft.newton.policy.Db2Object$RequiredObject"
             },
             {
                "name":"DSN8D12A",
                "qualifier":"",
                "subsystem":"a0f066e7-ccc8-41f1-a328-b9a5b275be6d",
                "type":"DB",
                "__yamlClass":"com.rocketsoft.newton.policy.Db2Object$RequiredObject"
             },
             {
                "name":"DSN8S12P",
                "qualifier":"DSN8D12A",
                "subsystem":"a0f066e7-ccc8-41f1-a328-b9a5b275be6d",
                "type":"TS",
                "__yamlClass":"com.rocketsoft.newton.policy.Db2Object$RequiredObject"
             }
          ],
          "subsystem":"a0f066e7-ccc8-41f1-a328-b9a5b275be6d",
          "type":"IX",
          "url":"",
          "createdts":"2016-12-19 14:25:33.564245",
          "objectName":"policy.db2object",
          "__yamlClass":"com.rocketsoft.newton.policy.Db2Object"
       },
       {
          "name":"XEMPPROJACT2",
          "qualifier":"DSN81210",
          "requiredObjects":[
             {
                "name":"EMPPROJACT",
                "qualifier":"DSN81210",
                "subsystem":"a0f066e7-ccc8-41f1-a328-b9a5b275be6d",
                "type":"TB",
                "__yamlClass":"com.rocketsoft.newton.policy.Db2Object$RequiredObject"
             },
             {
                "name":"DSN8D12A",
                "qualifier":"",
                "subsystem":"a0f066e7-ccc8-41f1-a328-b9a5b275be6d",
                "type":"DB",
                "__yamlClass":"com.rocketsoft.newton.policy.Db2Object$RequiredObject"
             },
             {
                "name":"DSN8S12P",
                "qualifier":"DSN8D12A",
                "subsystem":"a0f066e7-ccc8-41f1-a328-b9a5b275be6d",
                "type":"TS",
                "__yamlClass":"com.rocketsoft.newton.policy.Db2Object$RequiredObject"
             }
          ],
          "subsystem":"a0f066e7-ccc8-41f1-a328-b9a5b275be6d",
          "type":"IX",
          "url":"",
          "createdts":"2016-12-19 14:25:35.254987",
          "objectName":"policy.db2object",
          "__yamlClass":"com.rocketsoft.newton.policy.Db2Object"
       },
       {
          "name":"VEMPPROJACT",
          "qualifier":"DSN81210",
          "requiredObjects":[
             {
                "name":"EMPPROJACT",
                "qualifier":"DSN81210",
                "subsystem":"a0f066e7-ccc8-41f1-a328-b9a5b275be6d",
                "type":"TB",
                "__yamlClass":"com.rocketsoft.newton.policy.Db2Object$RequiredObject"
             },
             {
                "name":"VEMPPROJACT",
                "qualifier":"IBMUSER",
                "subsystem":"a0f066e7-ccc8-41f1-a328-b9a5b275be6d",
                "type":"AL",
                "__yamlClass":"com.rocketsoft.newton.policy.Db2Object$RequiredObject"
             }
          ],
          "subsystem":"a0f066e7-ccc8-41f1-a328-b9a5b275be6d",
          "type":"VW",
          "url":"",
          "createdts":"2016-12-19 14:25:36.954787",
          "objectName":"policy.db2object",
          "__yamlClass":"com.rocketsoft.newton.policy.Db2Object"
       },
       {
          "name":"EDEPT",
          "qualifier":"DSN81210",
          "requiredObjects":[
             {
                "name":"DSN8D12A",
                "qualifier":"",
                "subsystem":"a0f066e7-ccc8-41f1-a328-b9a5b275be6d",
                "type":"DB",
                "__yamlClass":"com.rocketsoft.newton.policy.Db2Object$RequiredObject"
             },
             {
                "name":"DSN8S12R",
                "qualifier":"DSN8D12A",
                "subsystem":"a0f066e7-ccc8-41f1-a328-b9a5b275be6d",
                "type":"TS",
                "__yamlClass":"com.rocketsoft.newton.policy.Db2Object$RequiredObject"
             }
          ],
          "subsystem":"a0f066e7-ccc8-41f1-a328-b9a5b275be6d",
          "type":"TB",
          "url":"",
          "createdts":"2016-12-19 14:25:45.1498",
          "objectName":"policy.db2object",
          "__yamlClass":"com.rocketsoft.newton.policy.Db2Object"
       },
       {
          "name":"VDEPMG1",
          "qualifier":"DSN81210",
          "requiredObjects":[
             {
                "name":"DEPT",
                "qualifier":"DSN81210",
                "subsystem":"a0f066e7-ccc8-41f1-a328-b9a5b275be6d",
                "type":"TB",
                "__yamlClass":"com.rocketsoft.newton.policy.Db2Object$RequiredObject"
             },
             {
                "name":"EMP",
                "qualifier":"DSN81210",
                "subsystem":"a0f066e7-ccc8-41f1-a328-b9a5b275be6d",
                "type":"TB",
                "__yamlClass":"com.rocketsoft.newton.policy.Db2Object$RequiredObject"
             },
             {
                "name":"VASTRDE1",
                "qualifier":"DSN81210",
                "subsystem":"a0f066e7-ccc8-41f1-a328-b9a5b275be6d",
                "type":"VW",
                "__yamlClass":"com.rocketsoft.newton.policy.Db2Object$RequiredObject"
             },
             {
                "name":"VASTRDE2",
                "qualifier":"DSN81210",
                "subsystem":"a0f066e7-ccc8-41f1-a328-b9a5b275be6d",
                "type":"VW",
                "__yamlClass":"com.rocketsoft.newton.policy.Db2Object$RequiredObject"
             },
             {
                "name":"VDEPMG1",
                "qualifier":"IBMUSER",
                "subsystem":"a0f066e7-ccc8-41f1-a328-b9a5b275be6d",
                "type":"AL",
                "__yamlClass":"com.rocketsoft.newton.policy.Db2Object$RequiredObject"
             }
          ],
          "subsystem":"a0f066e7-ccc8-41f1-a328-b9a5b275be6d",
          "type":"VW",
          "url":"",
          "createdts":"2016-12-19 14:26:36.413007",
          "objectName":"policy.db2object",
          "__yamlClass":"com.rocketsoft.newton.policy.Db2Object"
       },
       {
          "name":"VEMPDPT1",
          "qualifier":"DSN81210",
          "requiredObjects":[
             {
                "name":"DEPT",
                "qualifier":"DSN81210",
                "subsystem":"a0f066e7-ccc8-41f1-a328-b9a5b275be6d",
                "type":"TB",
                "__yamlClass":"com.rocketsoft.newton.policy.Db2Object$RequiredObject"
             },
             {
                "name":"EMP",
                "qualifier":"DSN81210",
                "subsystem":"a0f066e7-ccc8-41f1-a328-b9a5b275be6d",
                "type":"TB",
                "__yamlClass":"com.rocketsoft.newton.policy.Db2Object$RequiredObject"
             },
             {
                "name":"VEMPDPT1",
                "qualifier":"IBMUSER",
                "subsystem":"a0f066e7-ccc8-41f1-a328-b9a5b275be6d",
                "type":"AL",
                "__yamlClass":"com.rocketsoft.newton.policy.Db2Object$RequiredObject"
             }
          ],
          "subsystem":"a0f066e7-ccc8-41f1-a328-b9a5b275be6d",
          "type":"VW",
          "url":"",
          "createdts":"2016-12-19 14:26:36.414543",
          "objectName":"policy.db2object",
          "__yamlClass":"com.rocketsoft.newton.policy.Db2Object"
       },
       {
          "name":"VASTRDE1",
          "qualifier":"DSN81210",
          "requiredObjects":[
             {
                "name":"VDEPMG1",
                "qualifier":"DSN81210",
                "subsystem":"a0f066e7-ccc8-41f1-a328-b9a5b275be6d",
                "type":"VW",
                "__yamlClass":"com.rocketsoft.newton.policy.Db2Object$RequiredObject"
             },
             {
                "name":"VASTRDE1",
                "qualifier":"IBMUSER",
                "subsystem":"a0f066e7-ccc8-41f1-a328-b9a5b275be6d",
                "type":"AL",
                "__yamlClass":"com.rocketsoft.newton.policy.Db2Object$RequiredObject"
             }
          ],
          "subsystem":"a0f066e7-ccc8-41f1-a328-b9a5b275be6d",
          "type":"VW",
          "url":"",
          "createdts":"2016-12-19 14:26:37.131678",
          "objectName":"policy.db2object",
          "__yamlClass":"com.rocketsoft.newton.policy.Db2Object"
       },
       {
          "name":"VASTRDE2",
          "qualifier":"DSN81210",
          "requiredObjects":[
             {
                "name":"VDEPMG1",
                "qualifier":"DSN81210",
                "subsystem":"a0f066e7-ccc8-41f1-a328-b9a5b275be6d",
                "type":"VW",
                "__yamlClass":"com.rocketsoft.newton.policy.Db2Object$RequiredObject"
             },
             {
                "name":"EMP",
                "qualifier":"DSN81210",
                "subsystem":"a0f066e7-ccc8-41f1-a328-b9a5b275be6d",
                "type":"TB",
                "__yamlClass":"com.rocketsoft.newton.policy.Db2Object$RequiredObject"
             },
             {
                "name":"VASTRDE2",
                "qualifier":"IBMUSER",
                "subsystem":"a0f066e7-ccc8-41f1-a328-b9a5b275be6d",
                "type":"AL",
                "__yamlClass":"com.rocketsoft.newton.policy.Db2Object$RequiredObject"
             }
          ],
          "subsystem":"a0f066e7-ccc8-41f1-a328-b9a5b275be6d",
          "type":"VW",
          "url":"",
          "createdts":"2016-12-19 14:26:37.13388",
          "objectName":"policy.db2object",
          "__yamlClass":"com.rocketsoft.newton.policy.Db2Object"
       },
       {
          "name":"VPROJRE1",
          "qualifier":"DSN81210",
          "requiredObjects":[
             {
                "name":"PROJ",
                "qualifier":"DSN81210",
                "subsystem":"a0f066e7-ccc8-41f1-a328-b9a5b275be6d",
                "type":"TB",
                "__yamlClass":"com.rocketsoft.newton.policy.Db2Object$RequiredObject"
             },
             {
                "name":"EMP",
                "qualifier":"DSN81210",
                "subsystem":"a0f066e7-ccc8-41f1-a328-b9a5b275be6d",
                "type":"TB",
                "__yamlClass":"com.rocketsoft.newton.policy.Db2Object$RequiredObject"
             },
             {
                "name":"VPSTRDE1",
                "qualifier":"DSN81210",
                "subsystem":"a0f066e7-ccc8-41f1-a328-b9a5b275be6d",
                "type":"VW",
                "__yamlClass":"com.rocketsoft.newton.policy.Db2Object$RequiredObject"
             },
             {
                "name":"VPSTRDE2",
                "qualifier":"DSN81210",
                "subsystem":"a0f066e7-ccc8-41f1-a328-b9a5b275be6d",
                "type":"VW",
                "__yamlClass":"com.rocketsoft.newton.policy.Db2Object$RequiredObject"
             },
             {
                "name":"VFORPLA",
                "qualifier":"DSN81210",
                "subsystem":"a0f066e7-ccc8-41f1-a328-b9a5b275be6d",
                "type":"VW",
                "__yamlClass":"com.rocketsoft.newton.policy.Db2Object$RequiredObject"
             },
             {
                "name":"VPROJRE1",
                "qualifier":"IBMUSER",
                "subsystem":"a0f066e7-ccc8-41f1-a328-b9a5b275be6d",
                "type":"AL",
                "__yamlClass":"com.rocketsoft.newton.policy.Db2Object$RequiredObject"
             }
          ],
          "subsystem":"a0f066e7-ccc8-41f1-a328-b9a5b275be6d",
          "type":"VW",
          "url":"",
          "createdts":"2016-12-19 14:26:37.135108",
          "objectName":"policy.db2object",
          "__yamlClass":"com.rocketsoft.newton.policy.Db2Object"
       },
       {
          "name":"VPSTRDE1",
          "qualifier":"DSN81210",
          "requiredObjects":[
             {
                "name":"VPROJRE1",
                "qualifier":"DSN81210",
                "subsystem":"a0f066e7-ccc8-41f1-a328-b9a5b275be6d",
                "type":"VW",
                "__yamlClass":"com.rocketsoft.newton.policy.Db2Object$RequiredObject"
             },
             {
                "name":"VPSTRDE1",
                "qualifier":"IBMUSER",
                "subsystem":"a0f066e7-ccc8-41f1-a328-b9a5b275be6d",
                "type":"AL",
                "__yamlClass":"com.rocketsoft.newton.policy.Db2Object$RequiredObject"
             }
          ],
          "subsystem":"a0f066e7-ccc8-41f1-a328-b9a5b275be6d",
          "type":"VW",
          "url":"",
          "createdts":"2016-12-19 14:26:37.136406",
          "objectName":"policy.db2object",
          "__yamlClass":"com.rocketsoft.newton.policy.Db2Object"
       },
       {
          "name":"VPSTRDE2",
          "qualifier":"DSN81210",
          "requiredObjects":[
             {
                "name":"VPROJRE1",
                "qualifier":"DSN81210",
                "subsystem":"a0f066e7-ccc8-41f1-a328-b9a5b275be6d",
                "type":"VW",
                "__yamlClass":"com.rocketsoft.newton.policy.Db2Object$RequiredObject"
             },
             {
                "name":"VPSTRDE2",
                "qualifier":"IBMUSER",
                "subsystem":"a0f066e7-ccc8-41f1-a328-b9a5b275be6d",
                "type":"AL",
                "__yamlClass":"com.rocketsoft.newton.policy.Db2Object$RequiredObject"
             }
          ],
          "subsystem":"a0f066e7-ccc8-41f1-a328-b9a5b275be6d",
          "type":"VW",
          "url":"",
          "createdts":"2016-12-19 14:26:37.137996",
          "objectName":"policy.db2object",
          "__yamlClass":"com.rocketsoft.newton.policy.Db2Object"
       },
       {
          "name":"VFORPLA",
          "qualifier":"DSN81210",
          "requiredObjects":[
             {
                "name":"VPROJRE1",
                "qualifier":"DSN81210",
                "subsystem":"a0f066e7-ccc8-41f1-a328-b9a5b275be6d",
                "type":"VW",
                "__yamlClass":"com.rocketsoft.newton.policy.Db2Object$RequiredObject"
             },
             {
                "name":"EMPPROJACT",
                "qualifier":"DSN81210",
                "subsystem":"a0f066e7-ccc8-41f1-a328-b9a5b275be6d",
                "type":"TB",
                "__yamlClass":"com.rocketsoft.newton.policy.Db2Object$RequiredObject"
             },
             {
                "name":"VFORPLA",
                "qualifier":"IBMUSER",
                "subsystem":"a0f066e7-ccc8-41f1-a328-b9a5b275be6d",
                "type":"AL",
                "__yamlClass":"com.rocketsoft.newton.policy.Db2Object$RequiredObject"
             }
          ],
          "subsystem":"a0f066e7-ccc8-41f1-a328-b9a5b275be6d",
          "type":"VW",
          "url":"",
          "createdts":"2016-12-19 14:26:37.139692",
          "objectName":"policy.db2object",
          "__yamlClass":"com.rocketsoft.newton.policy.Db2Object"
       },
       {
          "name":"VSTAFAC1",
          "qualifier":"DSN81210",
          "requiredObjects":[
             {
                "name":"PROJACT",
                "qualifier":"DSN81210",
                "subsystem":"a0f066e7-ccc8-41f1-a328-b9a5b275be6d",
                "type":"TB",
                "__yamlClass":"com.rocketsoft.newton.policy.Db2Object$RequiredObject"
             },
             {
                "name":"ACT",
                "qualifier":"DSN81210",
                "subsystem":"a0f066e7-ccc8-41f1-a328-b9a5b275be6d",
                "type":"TB",
                "__yamlClass":"com.rocketsoft.newton.policy.Db2Object$RequiredObject"
             },
             {
                "name":"VSTAFAC1",
                "qualifier":"IBMUSER",
                "subsystem":"a0f066e7-ccc8-41f1-a328-b9a5b275be6d",
                "type":"AL",
                "__yamlClass":"com.rocketsoft.newton.policy.Db2Object$RequiredObject"
             }
          ],
          "subsystem":"a0f066e7-ccc8-41f1-a328-b9a5b275be6d",
          "type":"VW",
          "url":"",
          "createdts":"2016-12-19 14:26:37.140848",
          "objectName":"policy.db2object",
          "__yamlClass":"com.rocketsoft.newton.policy.Db2Object"
       },
       {
          "name":"VSTAFAC2",
          "qualifier":"DSN81210",
          "requiredObjects":[
             {
                "name":"EMPPROJACT",
                "qualifier":"DSN81210",
                "subsystem":"a0f066e7-ccc8-41f1-a328-b9a5b275be6d",
                "type":"TB",
                "__yamlClass":"com.rocketsoft.newton.policy.Db2Object$RequiredObject"
             },
             {
                "name":"ACT",
                "qualifier":"DSN81210",
                "subsystem":"a0f066e7-ccc8-41f1-a328-b9a5b275be6d",
                "type":"TB",
                "__yamlClass":"com.rocketsoft.newton.policy.Db2Object$RequiredObject"
             },
             {
                "name":"EMP",
                "qualifier":"DSN81210",
                "subsystem":"a0f066e7-ccc8-41f1-a328-b9a5b275be6d",
                "type":"TB",
                "__yamlClass":"com.rocketsoft.newton.policy.Db2Object$RequiredObject"
             },
             {
                "name":"VSTAFAC2",
                "qualifier":"IBMUSER",
                "subsystem":"a0f066e7-ccc8-41f1-a328-b9a5b275be6d",
                "type":"AL",
                "__yamlClass":"com.rocketsoft.newton.policy.Db2Object$RequiredObject"
             }
          ],
          "subsystem":"a0f066e7-ccc8-41f1-a328-b9a5b275be6d",
          "type":"VW",
          "url":"",
          "createdts":"2016-12-19 14:26:37.142229",
          "objectName":"policy.db2object",
          "__yamlClass":"com.rocketsoft.newton.policy.Db2Object"
       },
       {
          "name":"VPHONE",
          "qualifier":"DSN81210",
          "requiredObjects":[
             {
                "name":"EMP",
                "qualifier":"DSN81210",
                "subsystem":"a0f066e7-ccc8-41f1-a328-b9a5b275be6d",
                "type":"TB",
                "__yamlClass":"com.rocketsoft.newton.policy.Db2Object$RequiredObject"
             },
             {
                "name":"DEPT",
                "qualifier":"DSN81210",
                "subsystem":"a0f066e7-ccc8-41f1-a328-b9a5b275be6d",
                "type":"TB",
                "__yamlClass":"com.rocketsoft.newton.policy.Db2Object$RequiredObject"
             },
             {
                "name":"VPHONE",
                "qualifier":"IBMUSER",
                "subsystem":"a0f066e7-ccc8-41f1-a328-b9a5b275be6d",
                "type":"AL",
                "__yamlClass":"com.rocketsoft.newton.policy.Db2Object$RequiredObject"
             }
          ],
          "subsystem":"a0f066e7-ccc8-41f1-a328-b9a5b275be6d",
          "type":"VW",
          "url":"",
          "createdts":"2016-12-19 14:26:37.143518",
          "objectName":"policy.db2object",
          "__yamlClass":"com.rocketsoft.newton.policy.Db2Object"
       },
       {
          "name":"VEMPLP",
          "qualifier":"DSN81210",
          "requiredObjects":[
             {
                "name":"EMP",
                "qualifier":"DSN81210",
                "subsystem":"a0f066e7-ccc8-41f1-a328-b9a5b275be6d",
                "type":"TB",
                "__yamlClass":"com.rocketsoft.newton.policy.Db2Object$RequiredObject"
             },
             {
                "name":"VEMPLP",
                "qualifier":"IBMUSER",
                "subsystem":"a0f066e7-ccc8-41f1-a328-b9a5b275be6d",
                "type":"AL",
                "__yamlClass":"com.rocketsoft.newton.policy.Db2Object$RequiredObject"
             }
          ],
          "subsystem":"a0f066e7-ccc8-41f1-a328-b9a5b275be6d",
          "type":"VW",
          "url":"",
          "createdts":"2016-12-19 14:26:37.144618",
          "objectName":"policy.db2object",
          "__yamlClass":"com.rocketsoft.newton.policy.Db2Object"
       },
       {
          "name":"ACT",
          "qualifier":"IBMUSER",
          "requiredObjects":[
             {
                "name":"ACT",
                "qualifier":"DSN81210",
                "subsystem":"a0f066e7-ccc8-41f1-a328-b9a5b275be6d",
                "type":"TB",
                "__yamlClass":"com.rocketsoft.newton.policy.Db2Object$RequiredObject"
             }
          ],
          "subsystem":"a0f066e7-ccc8-41f1-a328-b9a5b275be6d",
          "type":"AL",
          "url":"",
          "createdts":"2016-12-19 14:26:37.494868",
          "objectName":"policy.db2object",
          "__yamlClass":"com.rocketsoft.newton.policy.Db2Object"
       },
       {
          "name":"DEPT",
          "qualifier":"IBMUSER",
          "requiredObjects":[
             {
                "name":"DEPT",
                "qualifier":"DSN81210",
                "subsystem":"a0f066e7-ccc8-41f1-a328-b9a5b275be6d",
                "type":"TB",
                "__yamlClass":"com.rocketsoft.newton.policy.Db2Object$RequiredObject"
             }
          ],
          "subsystem":"a0f066e7-ccc8-41f1-a328-b9a5b275be6d",
          "type":"AL",
          "url":"",
          "createdts":"2016-12-19 14:26:37.495581",
          "objectName":"policy.db2object",
          "__yamlClass":"com.rocketsoft.newton.policy.Db2Object"
       },
       {
          "name":"EMP",
          "qualifier":"IBMUSER",
          "requiredObjects":[
             {
                "name":"EMP",
                "qualifier":"DSN81210",
                "subsystem":"a0f066e7-ccc8-41f1-a328-b9a5b275be6d",
                "type":"TB",
                "__yamlClass":"com.rocketsoft.newton.policy.Db2Object$RequiredObject"
             }
          ],
          "subsystem":"a0f066e7-ccc8-41f1-a328-b9a5b275be6d",
          "type":"AL",
          "url":"",
          "createdts":"2016-12-19 14:26:37.496206",
          "objectName":"policy.db2object",
          "__yamlClass":"com.rocketsoft.newton.policy.Db2Object"
       },
       {
          "name":"EMPPROJACT",
          "qualifier":"IBMUSER",
          "requiredObjects":[
             {
                "name":"EMPPROJACT",
                "qualifier":"DSN81210",
                "subsystem":"a0f066e7-ccc8-41f1-a328-b9a5b275be6d",
                "type":"TB",
                "__yamlClass":"com.rocketsoft.newton.policy.Db2Object$RequiredObject"
             }
          ],
          "subsystem":"a0f066e7-ccc8-41f1-a328-b9a5b275be6d",
          "type":"AL",
          "url":"",
          "createdts":"2016-12-19 14:26:37.496514",
          "objectName":"policy.db2object",
          "__yamlClass":"com.rocketsoft.newton.policy.Db2Object"
       },
       {
          "name":"PROJACT",
          "qualifier":"IBMUSER",
          "requiredObjects":[
             {
                "name":"PROJACT",
                "qualifier":"DSN81210",
                "subsystem":"a0f066e7-ccc8-41f1-a328-b9a5b275be6d",
                "type":"TB",
                "__yamlClass":"com.rocketsoft.newton.policy.Db2Object$RequiredObject"
             }
          ],
          "subsystem":"a0f066e7-ccc8-41f1-a328-b9a5b275be6d",
          "type":"AL",
          "url":"",
          "createdts":"2016-12-19 14:26:37.497144",
          "objectName":"policy.db2object",
          "__yamlClass":"com.rocketsoft.newton.policy.Db2Object"
       },
       {
          "name":"PROJ",
          "qualifier":"IBMUSER",
          "requiredObjects":[
             {
                "name":"PROJ",
                "qualifier":"DSN81210",
                "subsystem":"a0f066e7-ccc8-41f1-a328-b9a5b275be6d",
                "type":"TB",
                "__yamlClass":"com.rocketsoft.newton.policy.Db2Object$RequiredObject"
             }
          ],
          "subsystem":"a0f066e7-ccc8-41f1-a328-b9a5b275be6d",
          "type":"AL",
          "url":"",
          "createdts":"2016-12-19 14:26:37.497453",
          "objectName":"policy.db2object",
          "__yamlClass":"com.rocketsoft.newton.policy.Db2Object"
       },
       {
          "name":"VPHONE",
          "qualifier":"IBMUSER",
          "requiredObjects":[
             {
                "name":"VPHONE",
                "qualifier":"DSN81210",
                "subsystem":"a0f066e7-ccc8-41f1-a328-b9a5b275be6d",
                "type":"VW",
                "__yamlClass":"com.rocketsoft.newton.policy.Db2Object$RequiredObject"
             }
          ],
          "subsystem":"a0f066e7-ccc8-41f1-a328-b9a5b275be6d",
          "type":"AL",
          "url":"",
          "createdts":"2016-12-19 14:26:37.497839",
          "objectName":"policy.db2object",
          "__yamlClass":"com.rocketsoft.newton.policy.Db2Object"
       },
       {
          "name":"VACT",
          "qualifier":"IBMUSER",
          "requiredObjects":[
             {
                "name":"VACT",
                "qualifier":"DSN81210",
                "subsystem":"a0f066e7-ccc8-41f1-a328-b9a5b275be6d",
                "type":"VW",
                "__yamlClass":"com.rocketsoft.newton.policy.Db2Object$RequiredObject"
             }
          ],
          "subsystem":"a0f066e7-ccc8-41f1-a328-b9a5b275be6d",
          "type":"AL",
          "url":"",
          "createdts":"2016-12-19 14:26:37.498173",
          "objectName":"policy.db2object",
          "__yamlClass":"com.rocketsoft.newton.policy.Db2Object"
       },
       {
          "name":"VDEPT",
          "qualifier":"IBMUSER",
          "requiredObjects":[
             {
                "name":"VDEPT",
                "qualifier":"DSN81210",
                "subsystem":"a0f066e7-ccc8-41f1-a328-b9a5b275be6d",
                "type":"VW",
                "__yamlClass":"com.rocketsoft.newton.policy.Db2Object$RequiredObject"
             }
          ],
          "subsystem":"a0f066e7-ccc8-41f1-a328-b9a5b275be6d",
          "type":"AL",
          "url":"",
          "createdts":"2016-12-19 14:26:37.498783",
          "objectName":"policy.db2object",
          "__yamlClass":"com.rocketsoft.newton.policy.Db2Object"
       },
       {
          "name":"VHDEPT",
          "qualifier":"IBMUSER",
          "requiredObjects":[
             {
                "name":"VHDEPT",
                "qualifier":"DSN81210",
                "subsystem":"a0f066e7-ccc8-41f1-a328-b9a5b275be6d",
                "type":"VW",
                "__yamlClass":"com.rocketsoft.newton.policy.Db2Object$RequiredObject"
             }
          ],
          "subsystem":"a0f066e7-ccc8-41f1-a328-b9a5b275be6d",
          "type":"AL",
          "url":"",
          "createdts":"2016-12-19 14:26:37.499088",
          "objectName":"policy.db2object",
          "__yamlClass":"com.rocketsoft.newton.policy.Db2Object"
       },
       {
          "name":"VEMP",
          "qualifier":"IBMUSER",
          "requiredObjects":[
             {
                "name":"VEMP",
                "qualifier":"DSN81210",
                "subsystem":"a0f066e7-ccc8-41f1-a328-b9a5b275be6d",
                "type":"VW",
                "__yamlClass":"com.rocketsoft.newton.policy.Db2Object$RequiredObject"
             }
          ],
          "subsystem":"a0f066e7-ccc8-41f1-a328-b9a5b275be6d",
          "type":"AL",
          "url":"",
          "createdts":"2016-12-19 14:26:37.499695",
          "objectName":"policy.db2object",
          "__yamlClass":"com.rocketsoft.newton.policy.Db2Object"
       },
       {
          "name":"VEMPPROJACT",
          "qualifier":"IBMUSER",
          "requiredObjects":[
             {
                "name":"VEMPPROJACT",
                "qualifier":"DSN81210",
                "subsystem":"a0f066e7-ccc8-41f1-a328-b9a5b275be6d",
                "type":"VW",
                "__yamlClass":"com.rocketsoft.newton.policy.Db2Object$RequiredObject"
             }
          ],
          "subsystem":"a0f066e7-ccc8-41f1-a328-b9a5b275be6d",
          "type":"AL",
          "url":"",
          "createdts":"2016-12-19 14:26:37.500004",
          "objectName":"policy.db2object",
          "__yamlClass":"com.rocketsoft.newton.policy.Db2Object"
       },
       {
          "name":"VPROJACT",
          "qualifier":"IBMUSER",
          "requiredObjects":[
             {
                "name":"VPROJACT",
                "qualifier":"DSN81210",
                "subsystem":"a0f066e7-ccc8-41f1-a328-b9a5b275be6d",
                "type":"VW",
                "__yamlClass":"com.rocketsoft.newton.policy.Db2Object$RequiredObject"
             }
          ],
          "subsystem":"a0f066e7-ccc8-41f1-a328-b9a5b275be6d",
          "type":"AL",
          "url":"",
          "createdts":"2016-12-19 14:26:37.500781",
          "objectName":"policy.db2object",
          "__yamlClass":"com.rocketsoft.newton.policy.Db2Object"
       },
       {
          "name":"VPROJ",
          "qualifier":"IBMUSER",
          "requiredObjects":[
             {
                "name":"VPROJ",
                "qualifier":"DSN81210",
                "subsystem":"a0f066e7-ccc8-41f1-a328-b9a5b275be6d",
                "type":"VW",
                "__yamlClass":"com.rocketsoft.newton.policy.Db2Object$RequiredObject"
             }
          ],
          "subsystem":"a0f066e7-ccc8-41f1-a328-b9a5b275be6d",
          "type":"AL",
          "url":"",
          "createdts":"2016-12-19 14:26:37.501092",
          "objectName":"policy.db2object",
          "__yamlClass":"com.rocketsoft.newton.policy.Db2Object"
       },
       {
          "name":"VEMPLP",
          "qualifier":"IBMUSER",
          "requiredObjects":[
             {
                "name":"VEMPLP",
                "qualifier":"DSN81210",
                "subsystem":"a0f066e7-ccc8-41f1-a328-b9a5b275be6d",
                "type":"VW",
                "__yamlClass":"com.rocketsoft.newton.policy.Db2Object$RequiredObject"
             }
          ],
          "subsystem":"a0f066e7-ccc8-41f1-a328-b9a5b275be6d",
          "type":"AL",
          "url":"",
          "createdts":"2016-12-19 14:26:37.5014",
          "objectName":"policy.db2object",
          "__yamlClass":"com.rocketsoft.newton.policy.Db2Object"
       },
       {
          "name":"VDEPMG1",
          "qualifier":"IBMUSER",
          "requiredObjects":[
             {
                "name":"VDEPMG1",
                "qualifier":"DSN81210",
                "subsystem":"a0f066e7-ccc8-41f1-a328-b9a5b275be6d",
                "type":"VW",
                "__yamlClass":"com.rocketsoft.newton.policy.Db2Object$RequiredObject"
             }
          ],
          "subsystem":"a0f066e7-ccc8-41f1-a328-b9a5b275be6d",
          "type":"AL",
          "url":"",
          "createdts":"2016-12-19 14:26:37.501707",
          "objectName":"policy.db2object",
          "__yamlClass":"com.rocketsoft.newton.policy.Db2Object"
       },
       {
          "name":"VEMPDPT1",
          "qualifier":"IBMUSER",
          "requiredObjects":[
             {
                "name":"VEMPDPT1",
                "qualifier":"DSN81210",
                "subsystem":"a0f066e7-ccc8-41f1-a328-b9a5b275be6d",
                "type":"VW",
                "__yamlClass":"com.rocketsoft.newton.policy.Db2Object$RequiredObject"
             }
          ],
          "subsystem":"a0f066e7-ccc8-41f1-a328-b9a5b275be6d",
          "type":"AL",
          "url":"",
          "createdts":"2016-12-19 14:26:37.502023",
          "objectName":"policy.db2object",
          "__yamlClass":"com.rocketsoft.newton.policy.Db2Object"
       },
       {
          "name":"VASTRDE1",
          "qualifier":"IBMUSER",
          "requiredObjects":[
             {
                "name":"VASTRDE1",
                "qualifier":"DSN81210",
                "subsystem":"a0f066e7-ccc8-41f1-a328-b9a5b275be6d",
                "type":"VW",
                "__yamlClass":"com.rocketsoft.newton.policy.Db2Object$RequiredObject"
             }
          ],
          "subsystem":"a0f066e7-ccc8-41f1-a328-b9a5b275be6d",
          "type":"AL",
          "url":"",
          "createdts":"2016-12-19 14:26:37.502334",
          "objectName":"policy.db2object",
          "__yamlClass":"com.rocketsoft.newton.policy.Db2Object"
       },
       {
          "name":"VASTRDE2",
          "qualifier":"IBMUSER",
          "requiredObjects":[
             {
                "name":"VASTRDE2",
                "qualifier":"DSN81210",
                "subsystem":"a0f066e7-ccc8-41f1-a328-b9a5b275be6d",
                "type":"VW",
                "__yamlClass":"com.rocketsoft.newton.policy.Db2Object$RequiredObject"
             }
          ],
          "subsystem":"a0f066e7-ccc8-41f1-a328-b9a5b275be6d",
          "type":"AL",
          "url":"",
          "createdts":"2016-12-19 14:26:37.502641",
          "objectName":"policy.db2object",
          "__yamlClass":"com.rocketsoft.newton.policy.Db2Object"
       },
       {
          "name":"VPROJRE1",
          "qualifier":"IBMUSER",
          "requiredObjects":[
             {
                "name":"VPROJRE1",
                "qualifier":"DSN81210",
                "subsystem":"a0f066e7-ccc8-41f1-a328-b9a5b275be6d",
                "type":"VW",
                "__yamlClass":"com.rocketsoft.newton.policy.Db2Object$RequiredObject"
             }
          ],
          "subsystem":"a0f066e7-ccc8-41f1-a328-b9a5b275be6d",
          "type":"AL",
          "url":"",
          "createdts":"2016-12-19 14:26:37.502948",
          "objectName":"policy.db2object",
          "__yamlClass":"com.rocketsoft.newton.policy.Db2Object"
       },
       {
          "name":"VPSTRDE1",
          "qualifier":"IBMUSER",
          "requiredObjects":[
             {
                "name":"VPSTRDE1",
                "qualifier":"DSN81210",
                "subsystem":"a0f066e7-ccc8-41f1-a328-b9a5b275be6d",
                "type":"VW",
                "__yamlClass":"com.rocketsoft.newton.policy.Db2Object$RequiredObject"
             }
          ],
          "subsystem":"a0f066e7-ccc8-41f1-a328-b9a5b275be6d",
          "type":"AL",
          "url":"",
          "createdts":"2016-12-19 14:26:37.503255",
          "objectName":"policy.db2object",
          "__yamlClass":"com.rocketsoft.newton.policy.Db2Object"
       },
       {
          "name":"VPSTRDE2",
          "qualifier":"IBMUSER",
          "requiredObjects":[
             {
                "name":"VPSTRDE2",
                "qualifier":"DSN81210",
                "subsystem":"a0f066e7-ccc8-41f1-a328-b9a5b275be6d",
                "type":"VW",
                "__yamlClass":"com.rocketsoft.newton.policy.Db2Object$RequiredObject"
             }
          ],
          "subsystem":"a0f066e7-ccc8-41f1-a328-b9a5b275be6d",
          "type":"AL",
          "url":"",
          "createdts":"2016-12-19 14:26:37.503562",
          "objectName":"policy.db2object",
          "__yamlClass":"com.rocketsoft.newton.policy.Db2Object"
       },
       {
          "name":"VFORPLA",
          "qualifier":"IBMUSER",
          "requiredObjects":[
             {
                "name":"VFORPLA",
                "qualifier":"DSN81210",
                "subsystem":"a0f066e7-ccc8-41f1-a328-b9a5b275be6d",
                "type":"VW",
                "__yamlClass":"com.rocketsoft.newton.policy.Db2Object$RequiredObject"
             }
          ],
          "subsystem":"a0f066e7-ccc8-41f1-a328-b9a5b275be6d",
          "type":"AL",
          "url":"",
          "createdts":"2016-12-19 14:26:37.503951",
          "objectName":"policy.db2object",
          "__yamlClass":"com.rocketsoft.newton.policy.Db2Object"
       },
       {
          "name":"VSTAFAC1",
          "qualifier":"IBMUSER",
          "requiredObjects":[
             {
                "name":"VSTAFAC1",
                "qualifier":"DSN81210",
                "subsystem":"a0f066e7-ccc8-41f1-a328-b9a5b275be6d",
                "type":"VW",
                "__yamlClass":"com.rocketsoft.newton.policy.Db2Object$RequiredObject"
             }
          ],
          "subsystem":"a0f066e7-ccc8-41f1-a328-b9a5b275be6d",
          "type":"AL",
          "url":"",
          "createdts":"2016-12-19 14:26:37.504261",
          "objectName":"policy.db2object",
          "__yamlClass":"com.rocketsoft.newton.policy.Db2Object"
       },
       {
          "name":"VSTAFAC2",
          "qualifier":"IBMUSER",
          "requiredObjects":[
             {
                "name":"VSTAFAC2",
                "qualifier":"DSN81210",
                "subsystem":"a0f066e7-ccc8-41f1-a328-b9a5b275be6d",
                "type":"VW",
                "__yamlClass":"com.rocketsoft.newton.policy.Db2Object$RequiredObject"
             }
          ],
          "subsystem":"a0f066e7-ccc8-41f1-a328-b9a5b275be6d",
          "type":"AL",
          "url":"",
          "createdts":"2016-12-19 14:26:37.504571",
          "objectName":"policy.db2object",
          "__yamlClass":"com.rocketsoft.newton.policy.Db2Object"
       }
    ],
    "description":"Test app",
    "hexColor":"#fdcfad",
    "id":null,
    "name":"For Summer",
    "letter":"",
    "ready":false,
    "requiredApps":[
 
    ],
    "thirdParty":false,
    "ownedByTeam":"88ac93fa-c3f1-4e74-9719-6430c55038c0",
    "teamsVisibleTo":[
 
    ],
    "pullRequestApprovers":[
 
    ],
    "requiresApprovalByAll":false,
    "createDataSeedFromObjects":false,
    "statements":[
 
    ],
    "subsystem":"",
    "__yamlClass":"com.rocketsoft.newton.policy.Application"
 }